#############
Release notes
#############

Release notes for the official Mayan EDMS releases. Each release note will
tell you what's new in each version, and will also describe any
backwards-incompatible changes made in that version.

For those upgrading to a new version of Mayan EDMS, you will need to check
all the backwards-incompatible changes and deprecated features for
each 'final' release from the one after your current Mayan EDMS version,
up to and including the latest version.

Below are release notes through Mayan EDMS |version| and its minor
releases. Newer versions of the documentation contain the release notes
for any later releases.


**********
4.0 series
**********
.. toctree::
   :maxdepth: 1

   4.6.1
   4.6
   4.5.9
   4.5.8
   4.5.7
   4.5.6
   4.5.5
   4.5.4
   4.5.3
   4.5.2
   4.5.1
   4.5
   4.4.12
   4.4.11
   4.4.10
   4.4.9
   4.4.8
   4.4.7
   4.4.6
   4.4.5
   4.4.4
   4.4.3
   4.4.2
   4.4.1
   4.4
   4.3.12
   4.3.11
   4.3.10
   4.3.9
   4.3.8
   4.3.7
   4.3.6
   4.3.5
   4.3.4
   4.3.3
   4.3.2
   4.3.1
   4.3
   4.2.18
   4.2.17
   4.2.16
   4.2.15
   4.2.14
   4.2.13
   4.2.12
   4.2.11
   4.2.10
   4.2.9
   4.2.8
   4.2.7
   4.2.6
   4.2.5
   4.2.4
   4.2.3
   4.2.2
   4.2.1
   4.2
   4.1.12
   4.1.11
   4.1.10
   4.1.9
   4.1.8
   4.1.7
   4.1.6
   4.1.5
   4.1.4
   4.1.3
   4.1.2
   4.1.1
   4.1
   4.0.24
   4.0.23
   4.0.22
   4.0.21
   4.0.20
   4.0.19
   4.0.18
   4.0.17
   4.0.16
   4.0.15
   4.0.14
   4.0.13
   4.0.12
   4.0.11
   4.0.10
   4.0.9
   4.0.8
   4.0.7
   4.0.6
   4.0.5
   4.0.4
   4.0.3
   4.0.2
   4.0.1
   4.0


**********
3.0 series
**********
.. toctree::
   :maxdepth: 1

   3.5.12
   3.5.11
   3.5.10
   3.5.9
   3.5.8
   3.5.7
   3.5.6
   3.5.5
   3.5.4
   3.5.3
   3.5.2
   3.5.1
   3.5
   3.4.22
   3.4.21
   3.4.20
   3.4.19
   3.4.18
   3.4.17
   3.4.16
   3.4.15
   3.4.14
   3.4.13
   3.4.12
   3.4.11
   3.4.10
   3.4.9
   3.4.8
   3.4.7
   3.4.6
   3.4.5
   3.4.4
   3.4.3
   3.4.2
   3.4.1
   3.4
   3.3.18
   3.3.17
   3.3.16
   3.3.15
   3.3.14
   3.3.13
   3.3.12
   3.3.11
   3.3.10
   3.3.9
   3.3.8
   3.3.7
   3.3.6
   3.3.5
   3.3.4
   3.3.3
   3.3.2
   3.3.1
   3.3
   3.2.11
   3.2.10
   3.2.9
   3.2.8
   3.2.7
   3.2.6
   3.2.5
   3.2.4
   3.2.3
   3.2.2
   3.2.1
   3.2
   3.1.11
   3.1.10
   3.1.9
   3.1.8
   3.1.7
   3.1.6
   3.1.5
   3.1.4
   3.1.3
   3.1.2
   3.1.1
   3.1
   3.0.3
   3.0.2
   3.0.1
   3.0


**********
2.0 series
**********
.. toctree::
   :maxdepth: 1

   2.7.3
   2.7.2
   2.7.1
   2.7
   2.6.4
   2.6.3
   2.6.2
   2.6.1
   2.6
   2.5.2
   2.5.1
   2.5
   2.4
   2.3
   2.2
   2.1.11
   2.1.10
   2.1.9
   2.1.8
   2.1.7
   2.1.6
   2.1.5
   2.1.4
   2.1.3
   2.1.2
   2.1.1
   2.1
   2.0.2
   2.0.1
   2.0

**********
1.0 series
**********
.. toctree::
   :maxdepth: 1

   1.1.1
   1.1
   1.0

************
0.13 release
************
.. toctree::
   :maxdepth: 1

   0.13

************
0.12 release
************
.. toctree::
   :maxdepth: 1

   0.12.2
   0.12.1
   0.12

************
0.11 release
************
.. toctree::
   :maxdepth: 1

   0.11.1
   0.11

************
0.10 release
************
.. toctree::
   :maxdepth: 1

   0.10.1
   0.10

***********
0.9 release
***********
.. toctree::
   :maxdepth: 1

   0.9.1
   0.9

***********
0.8 release
***********
.. toctree::
   :maxdepth: 1

   0.8.3
   0.8.2
   0.8.1
   0.8

***********
0.7 release
***********
.. toctree::
   :maxdepth: 1

   0.7.6
   0.7.5
   0.7.4
   0.7.3
   0.7

***********
0.5 release
***********
.. toctree::
   :maxdepth: 1

   0.5.1
   0.5


******************
Upgrade procedures
******************
.. toctree::
   :maxdepth: 1

   partials/upgrade-3.5-4.0
